{
  "planId" : 5,
  "algorithmConfig" : {
    "factorKalman" : 1,
    "updatePeriod" : 3,
    "maxRelocation" : 500,
    "nearestBeaconsCount" : 4
  },
  "data" : {
    "points" : [
      {
        "beaconData" : [
          [
            3,
            101.076
          ],
          [
            1,
            101.076
          ],
          [
            3,
            148.388845457786
          ],
          [
            2,
            163.148742379245
          ],
          [
            4,
            513.736968518907
          ],
          [
            8,
            433.7792827947944
          ],
          [
            1,
            122.5648748591706
          ],
          [
            3,
            148.388845457786
          ],
          [
            2,
            163.148742379245
          ],
          [
            4,
            513.736968518907
          ],
          [
            1,
            122.5648748591706
          ],
          [
            3,
            148.388845457786
          ],
          [
            2,
            163.148742379245
          ],
          [
            4,
            561.1662885019098
          ],
          [
            1,
            122.5648748591706
          ],
          [
            3,
            148.388845457786
          ],
          [
            2,
            163.148742379245
          ],
          [
            4,
            612.4438831334355
          ],
          [
            1,
            75.14626854558617
          ],
          [
            3,
            134.8919448261837
          ],
          [
            4,
            513.736968518907
          ],
          [
            1,
            134.8919448261837
          ],
          [
            3,
            134.8919448261837
          ],
          [
            4,
            561.1662885019098
          ]
        ],
        "timestampBeginCalculate" : 1469178988.243893,
        "resultPoint" : [
          1025,
          1025
        ],
        "timestampEndCalculate" : 1469178988.251357,
        "pointId" : 1,
        "calcTime" : 0.007463932037353516
      },
      {
        "beaconData" : [
          [
            1,
            86.77545768038375
          ],
          [
            3,
            134.8919448261837
          ],
          [
            4,
            612.4438831334355
          ],
          [
            1,
            86.77545768038375
          ],
          [
            3,
            134.8919448261837
          ],
          [
            4,
            612.4438831334355
          ],
          [
            1,
            86.77545768038375
          ],
          [
            3,
            134.8919448261837
          ],
          [
            4,
            612.4438831334355
          ],
          [
            1,
            86.77545768038375
          ],
          [
            3,
            134.8919448261837
          ],
          [
            4,
            612.4438831334355
          ],
          [
            1,
            86.77545768038375
          ],
          [
            3,
            134.8919448261837
          ],
          [
            4,
            469.9073594284206
          ],
          [
            8,
            513.736968518907
          ],
          [
            1,
            86.77545768038375
          ],
          [
            3,
            134.8919448261837
          ],
          [
            4,
            469.9073594284206
          ],
          [
            8,
            513.736968518907
          ],
          [
            1,
            86.77545768038375
          ],
          [
            3,
            134.8919448261837
          ],
          [
            4,
            469.9073594284206
          ],
          [
            8,
            513.736968518907
          ],
          [
            1,
            86.77545768038375
          ],
          [
            3,
            134.8919448261837
          ],
          [
            4,
            513.736968518907
          ],
          [
            8,
            513.736968518907
          ],
          [
            1,
            86.77545768038375
          ],
          [
            3,
            134.8919448261837
          ],
          [
            4,
            561.1662885019098
          ],
          [
            8,
            513.736968518907
          ],
          [
            1,
            134.8919448261837
          ],
          [
            3,
            134.8919448261837
          ],
          [
            4,
            513.736968518907
          ],
          [
            8,
            513.736968518907
          ],
          [
            5,
            606.5482946890265
          ],
          [
            1,
            134.8919448261837
          ],
          [
            3,
            134.8919448261837
          ],
          [
            4,
            513.736968518907
          ],
          [
            8,
            513.736968518907
          ],
          [
            5,
            606.5482946890265
          ],
          [
            1,
            134.8919448261837
          ],
          [
            3,
            134.8919448261837
          ],
          [
            4,
            513.736968518907
          ],
          [
            8,
            513.736968518907
          ],
          [
            5,
            606.5482946890265
          ],
          [
            1,
            122.5648748591706
          ],
          [
            3,
            134.8919448261837
          ],
          [
            4,
            429.4422932744724
          ],
          [
            8,
            513.736968518907
          ],
          [
            5,
            513.736968518907
          ],
          [
            1,
            122.5648748591706
          ],
          [
            3,
            134.8919448261837
          ],
          [
            4,
            429.4422932744724
          ],
          [
            8,
            513.736968518907
          ],
          [
            5,
            513.736968518907
          ],
          [
            1,
            111.3202135765038
          ],
          [
            3,
            134.8919448261837
          ],
          [
            4,
            429.4422932744724
          ],
          [
            8,
            558.4327245319774
          ],
          [
            5,
            513.736968518907
          ],
          [
            1,
            111.3202135765038
          ],
          [
            3,
            134.8919448261837
          ],
          [
            4,
            429.4422932744724
          ],
          [
            8,
            558.4327245319774
          ],
          [
            5,
            513.736968518907
          ],
          [
            1,
            122.5648748591706
          ],
          [
            3,
            134.8919448261837
          ],
          [
            4,
            429.4422932744724
          ],
          [
            8,
            558.4327245319774
          ],
          [
            5,
            513.736968518907
          ],
          [
            1,
            75.14626854558617
          ],
          [
            3,
            148.388845457786
          ],
          [
            4,
            429.4422932744724
          ],
          [
            5,
            513.736968518907
          ],
          [
            1,
            75.14626854558617
          ],
          [
            3,
            148.388845457786
          ],
          [
            4,
            429.4422932744724
          ],
          [
            5,
            513.736968518907
          ],
          [
            1,
            75.14626854558617
          ],
          [
            3,
            163.148742379245
          ],
          [
            4,
            561.1662885019098
          ],
          [
            5,
            472.251958192618
          ],
          [
            1,
            75.14626854558617
          ],
          [
            3,
            163.148742379245
          ],
          [
            4,
            561.1662885019098
          ],
          [
            5,
            472.251958192618
          ],
          [
            1,
            75.14626854558617
          ],
          [
            3,
            163.148742379245
          ],
          [
            4,
            561.1662885019098
          ],
          [
            5,
            472.251958192618
          ],
          [
            1,
            75.14626854558617
          ],
          [
            3,
            163.148742379245
          ],
          [
            4,
            561.1662885019098
          ],
          [
            5,
            472.251958192618
          ],
          [
            1,
            75.14626854558617
          ],
          [
            3,
            163.148742379245
          ],
          [
            4,
            561.1662885019098
          ],
          [
            5,
            472.251958192618
          ]
        ],
        "timestampBeginCalculate" : 1469178991.264382,
        "resultPoint" : [
          1025,
          1175
        ],
        "timestampEndCalculate" : 1469178991.372155,
        "pointId" : 2,
        "calcTime" : 0.1077730655670166
      },
      {
        "beaconData" : [
          [
            1,
            75.14626854558617
          ],
          [
            3,
            163.148742379245
          ],
          [
            4,
            513.736968518907
          ],
          [
            5,
            472.251958192618
          ],
          [
            1,
            75.14626854558617
          ],
          [
            3,
            163.148742379245
          ],
          [
            4,
            469.9073594284206
          ],
          [
            5,
            472.251958192618
          ],
          [
            1,
            75.14626854558617
          ],
          [
            3,
            163.148742379245
          ],
          [
            2,
            524.7563943861383
          ],
          [
            4,
            326.0716563905942
          ],
          [
            5,
            472.251958192618
          ],
          [
            1,
            75.14626854558617
          ],
          [
            3,
            163.148742379245
          ],
          [
            2,
            524.7563943861383
          ],
          [
            4,
            326.0716563905942
          ],
          [
            5,
            472.251958192618
          ],
          [
            1,
            75.14626854558617
          ],
          [
            3,
            163.148742379245
          ],
          [
            2,
            524.7563943861383
          ],
          [
            4,
            326.0716563905942
          ],
          [
            5,
            472.251958192618
          ],
          [
            1,
            75.14626854558617
          ],
          [
            3,
            163.148742379245
          ],
          [
            2,
            524.7563943861383
          ],
          [
            4,
            326.0716563905942
          ],
          [
            5,
            472.251958192618
          ],
          [
            1,
            86.77545768038375
          ],
          [
            3,
            163.148742379245
          ],
          [
            2,
            524.7563943861383
          ],
          [
            4,
            326.0716563905942
          ],
          [
            5,
            558.4327245319774
          ],
          [
            1,
            111.3202135765038
          ],
          [
            3,
            163.148742379245
          ],
          [
            2,
            524.7563943861383
          ],
          [
            4,
            326.0716563905942
          ],
          [
            5,
            433.7792827947944
          ],
          [
            1,
            111.3202135765038
          ],
          [
            3,
            163.148742379245
          ],
          [
            4,
            326.0716563905942
          ],
          [
            2,
            524.7563943861383
          ],
          [
            5,
            433.7792827947944
          ],
          [
            1,
            111.3202135765038
          ],
          [
            3,
            163.148742379245
          ],
          [
            4,
            326.0716563905942
          ],
          [
            2,
            524.7563943861383
          ],
          [
            5,
            433.7792827947944
          ],
          [
            1,
            111.3202135765038
          ],
          [
            3,
            163.148742379245
          ],
          [
            4,
            326.0716563905942
          ],
          [
            2,
            524.7563943861383
          ],
          [
            5,
            433.7792827947944
          ],
          [
            1,
            122.5648748591706
          ],
          [
            3,
            163.148742379245
          ],
          [
            4,
            469.9073594284206
          ],
          [
            5,
            433.7792827947944
          ],
          [
            1,
            122.5648748591706
          ],
          [
            3,
            163.148742379245
          ],
          [
            4,
            469.9073594284206
          ],
          [
            5,
            433.7792827947944
          ]
        ],
        "timestampBeginCalculate" : 1469178994.405784,
        "resultPoint" : [
          1025,
          1175
        ],
        "timestampEndCalculate" : 1469178994.412875,
        "pointId" : 3,
        "calcTime" : 0.00709080696105957
      },
      {
        "beaconData" : [
          [
            1,
            148.388845457786
          ],
          [
            3,
            111.3202135765038
          ],
          [
            4,
            513.736968518907
          ],
          [
            5,
            433.7792827947944
          ],
          [
            3,
            111.3202135765038
          ],
          [
            2,
            122.5648748591706
          ],
          [
            4,
            513.736968518907
          ],
          [
            3,
            111.3202135765038
          ],
          [
            2,
            122.5648748591706
          ],
          [
            4,
            513.736968518907
          ],
          [
            3,
            111.3202135765038
          ],
          [
            2,
            122.5648748591706
          ],
          [
            4,
            561.1662885019098
          ],
          [
            3,
            111.3202135765038
          ],
          [
            2,
            122.5648748591706
          ],
          [
            4,
            561.1662885019098
          ],
          [
            3,
            111.3202135765038
          ],
          [
            2,
            122.5648748591706
          ],
          [
            4,
            612.4438831334355
          ],
          [
            1,
            101.076
          ],
          [
            3,
            111.3202135765038
          ],
          [
            4,
            612.4438831334355
          ],
          [
            1,
            101.076
          ],
          [
            3,
            111.3202135765038
          ]
        ],
        "timestampBeginCalculate" : 1469178997.461308,
        "resultPoint" : [
          975,
          975
        ],
        "timestampEndCalculate" : 1469178997.588137,
        "pointId" : 4,
        "calcTime" : 0.1268289089202881
      },
      {
        "beaconData" : [
          [
            1,
            101.076
          ],
          [
            3,
            111.3202135765038
          ],
          [
            4,
            667.8323058832368
          ],
          [
            5,
            472.251958192618
          ],
          [
            1,
            101.076
          ],
          [
            3,
            122.5648748591706
          ],
          [
            4,
            667.8323058832368
          ],
          [
            5,
            365.1279992787795
          ],
          [
            1,
            101.076
          ],
          [
            3,
            122.5648748591706
          ],
          [
            4,
            667.8323058832368
          ],
          [
            5,
            365.1279992787795
          ],
          [
            1,
            101.076
          ],
          [
            3,
            122.5648748591706
          ],
          [
            4,
            667.8323058832368
          ],
          [
            5,
            365.1279992787795
          ],
          [
            1,
            101.076
          ],
          [
            4,
            667.8323058832368
          ],
          [
            5,
            365.1279992787795
          ],
          [
            1,
            101.076
          ],
          [
            4,
            513.736968518907
          ],
          [
            5,
            365.1279992787795
          ],
          [
            1,
            101.076
          ],
          [
            4,
            513.736968518907
          ],
          [
            5,
            365.1279992787795
          ],
          [
            1,
            86.77545768038375
          ],
          [
            4,
            513.736968518907
          ],
          [
            5,
            365.1279992787795
          ],
          [
            1,
            75.14626854558617
          ],
          [
            3,
            64.93900646854527
          ],
          [
            4,
            612.4438831334355
          ],
          [
            5,
            472.251958192618
          ],
          [
            1,
            55.9969715318615
          ],
          [
            3,
            64.93900646854527
          ],
          [
            4,
            612.4438831334355
          ],
          [
            5,
            472.251958192618
          ],
          [
            1,
            55.9969715318615
          ],
          [
            3,
            64.93900646854527
          ],
          [
            4,
            513.736968518907
          ],
          [
            5,
            472.251958192618
          ],
          [
            3,
            64.93900646854527
          ],
          [
            1,
            55.9969715318615
          ],
          [
            2,
            134.8919448261837
          ],
          [
            4,
            513.736968518907
          ],
          [
            5,
            472.251958192618
          ],
          [
            3,
            64.93900646854527
          ],
          [
            1,
            41.35710011760051
          ],
          [
            2,
            134.8919448261837
          ],
          [
            4,
            513.736968518907
          ],
          [
            5,
            472.251958192618
          ],
          [
            3,
            64.93900646854527
          ],
          [
            1,
            41.35710011760051
          ],
          [
            2,
            134.8919448261837
          ],
          [
            4,
            513.736968518907
          ],
          [
            5,
            472.251958192618
          ]
        ],
        "timestampBeginCalculate" : 1469179000.596345,
        "resultPoint" : [
          975,
          1075
        ],
        "timestampEndCalculate" : 1469179000.682379,
        "pointId" : 5,
        "calcTime" : 0.08603405952453613
      },
      {
        "beaconData" : [
          [
            3,
            55.9969715318615
          ],
          [
            1,
            48.17878774152696
          ],
          [
            2,
            86.77545768038375
          ],
          [
            4,
            469.9073594284206
          ],
          [
            5,
            513.736968518907
          ],
          [
            3,
            55.9969715318615
          ],
          [
            1,
            48.17878774152696
          ],
          [
            2,
            86.77545768038375
          ],
          [
            4,
            469.9073594284206
          ],
          [
            5,
            513.736968518907
          ],
          [
            3,
            55.9969715318615
          ],
          [
            1,
            41.35710011760051
          ],
          [
            2,
            86.77545768038375
          ],
          [
            4,
            469.9073594284206
          ],
          [
            1,
            41.35710011760051
          ],
          [
            3,
            64.93900646854527
          ],
          [
            2,
            86.77545768038375
          ],
          [
            4,
            469.9073594284206
          ],
          [
            1,
            48.17878774152696
          ],
          [
            3,
            64.93900646854527
          ],
          [
            2,
            86.77545768038375
          ],
          [
            4,
            469.9073594284206
          ],
          [
            1,
            64.93900646854527
          ],
          [
            3,
            48.17878774152696
          ],
          [
            2,
            86.77545768038375
          ],
          [
            4,
            469.9073594284206
          ],
          [
            5,
            558.4327245319774
          ],
          [
            1,
            64.93900646854527
          ],
          [
            3,
            48.17878774152696
          ],
          [
            2,
            64.93900646854527
          ],
          [
            4,
            469.9073594284206
          ],
          [
            5,
            558.4327245319774
          ],
          [
            1,
            64.93900646854527
          ],
          [
            3,
            48.17878774152696
          ],
          [
            2,
            64.93900646854527
          ],
          [
            4,
            469.9073594284206
          ],
          [
            5,
            558.4327245319774
          ],
          [
            1,
            64.93900646854527
          ],
          [
            3,
            48.17878774152696
          ],
          [
            2,
            64.93900646854527
          ],
          [
            4,
            469.9073594284206
          ],
          [
            5,
            558.4327245319774
          ],
          [
            1,
            86.77545768038375
          ],
          [
            3,
            48.17878774152696
          ],
          [
            2,
            101.076
          ],
          [
            4,
            667.8323058832368
          ],
          [
            5,
            606.5482946890265
          ],
          [
            8,
            606.5482946890265
          ],
          [
            1,
            101.076
          ],
          [
            3,
            48.17878774152696
          ],
          [
            2,
            101.076
          ],
          [
            4,
            667.8323058832368
          ],
          [
            5,
            606.5482946890265
          ],
          [
            8,
            606.5482946890265
          ],
          [
            1,
            101.076
          ],
          [
            3,
            48.17878774152696
          ],
          [
            2,
            163.148742379245
          ],
          [
            4,
            513.736968518907
          ],
          [
            5,
            433.7792827947944
          ],
          [
            8,
            606.5482946890265
          ],
          [
            3,
            25.78299757657033
          ],
          [
            1,
            101.076
          ],
          [
            2,
            134.8919448261837
          ],
          [
            4,
            183.7796512587244
          ],
          [
            5,
            433.7792827947944
          ],
          [
            8,
            558.4327245319774
          ],
          [
            3,
            25.78299757657033
          ],
          [
            1,
            111.3202135765038
          ],
          [
            2,
            134.8919448261837
          ],
          [
            4,
            183.7796512587244
          ],
          [
            8,
            558.4327245319774
          ],
          [
            3,
            25.78299757657033
          ],
          [
            1,
            111.3202135765038
          ],
          [
            2,
            134.8919448261837
          ],
          [
            4,
            183.7796512587244
          ],
          [
            8,
            558.4327245319774
          ],
          [
            3,
            25.78299757657033
          ],
          [
            1,
            122.5648748591706
          ],
          [
            2,
            134.8919448261837
          ],
          [
            4,
            183.7796512587244
          ],
          [
            8,
            433.7792827947944
          ],
          [
            7,
            472.251958192618
          ],
          [
            3,
            25.78299757657033
          ],
          [
            1,
            196.860675696825
          ],
          [
            2,
            134.8919448261837
          ],
          [
            4,
            183.7796512587244
          ],
          [
            8,
            433.7792827947944
          ],
          [
            7,
            472.251958192618
          ],
          [
            3,
            25.78299757657033
          ],
          [
            1,
            196.860675696825
          ],
          [
            2,
            134.8919448261837
          ],
          [
            4,
            183.7796512587244
          ],
          [
            8,
            433.7792827947944
          ],
          [
            7,
            472.251958192618
          ]
        ],
        "timestampBeginCalculate" : 1469179003.719628,
        "resultPoint" : [
          875,
          1025
        ],
        "timestampEndCalculate" : 1469179003.807399,
        "pointId" : 6,
        "calcTime" : 0.08777117729187012
      },
      {
        "beaconData" : [
          [
            3,
            25.78299757657033
          ],
          [
            1,
            236.8993551961507
          ],
          [
            2,
            101.076
          ],
          [
            4,
            166.5843955744024
          ],
          [
            7,
            334.6020288426232
          ],
          [
            8,
            513.736968518907
          ],
          [
            3,
            25.78299757657033
          ],
          [
            1,
            236.8993551961507
          ],
          [
            2,
            55.9969715318615
          ],
          [
            4,
            166.5843955744024
          ],
          [
            7,
            334.6020288426232
          ],
          [
            8,
            513.736968518907
          ],
          [
            3,
            30.25673122295978
          ],
          [
            1,
            236.8993551961507
          ],
          [
            2,
            35.41736544564151
          ],
          [
            4,
            166.5843955744024
          ],
          [
            7,
            334.6020288426232
          ],
          [
            8,
            433.7792827947944
          ],
          [
            3,
            30.25673122295978
          ],
          [
            1,
            236.8993551961507
          ],
          [
            2,
            35.41736544564151
          ],
          [
            4,
            166.5843955744024
          ],
          [
            7,
            334.6020288426232
          ],
          [
            8,
            433.7792827947944
          ],
          [
            3,
            25.78299757657033
          ],
          [
            2,
            35.41736544564151
          ],
          [
            1,
            236.8993551961507
          ],
          [
            4,
            150.8990115896871
          ],
          [
            7,
            334.6020288426232
          ],
          [
            8,
            433.7792827947944
          ],
          [
            3,
            25.78299757657033
          ],
          [
            2,
            35.41736544564151
          ],
          [
            1,
            216.0304543783359
          ],
          [
            4,
            150.8990115896871
          ],
          [
            7,
            334.6020288426232
          ],
          [
            8,
            433.7792827947944
          ],
          [
            3,
            18.5750083065955
          ],
          [
            2,
            30.25673122295978
          ],
          [
            1,
            196.860675696825
          ],
          [
            4,
            136.609170434882
          ],
          [
            7,
            334.6020288426232
          ],
          [
            3,
            18.5750083065955
          ],
          [
            2,
            30.25673122295978
          ],
          [
            1,
            216.0304543783359
          ],
          [
            4,
            150.8990115896871
          ],
          [
            7,
            334.6020288426232
          ],
          [
            3,
            25.78299757657033
          ],
          [
            2,
            30.25673122295978
          ],
          [
            1,
            216.0304543783359
          ],
          [
            4,
            150.8990115896871
          ],
          [
            3,
            25.78299757657033
          ],
          [
            2,
            30.25673122295978
          ],
          [
            1,
            216.0304543783359
          ],
          [
            4,
            150.8990115896871
          ],
          [
            8,
            472.251958192618
          ],
          [
            3,
            25.78299757657033
          ],
          [
            2,
            30.25673122295978
          ],
          [
            1,
            216.0304543783359
          ],
          [
            4,
            150.8990115896871
          ],
          [
            8,
            472.251958192618
          ],
          [
            3,
            48.17878774152696
          ],
          [
            1,
            216.0304543783359
          ],
          [
            4,
            150.8990115896871
          ],
          [
            5,
            472.251958192618
          ],
          [
            8,
            472.251958192618
          ],
          [
            3,
            48.17878774152696
          ],
          [
            2,
            25.78299757657033
          ],
          [
            1,
            179.2708380433156
          ],
          [
            4,
            150.8990115896871
          ],
          [
            7,
            558.4327245319774
          ],
          [
            5,
            472.251958192618
          ],
          [
            8,
            472.251958192618
          ],
          [
            3,
            48.17878774152696
          ],
          [
            2,
            25.78299757657033
          ],
          [
            1,
            179.2708380433156
          ],
          [
            4,
            150.8990115896871
          ],
          [
            7,
            558.4327245319774
          ],
          [
            5,
            472.251958192618
          ],
          [
            8,
            472.251958192618
          ],
          [
            3,
            48.17878774152696
          ],
          [
            2,
            25.78299757657033
          ],
          [
            1,
            179.2708380433156
          ],
          [
            4,
            150.8990115896871
          ],
          [
            7,
            513.736968518907
          ],
          [
            5,
            472.251958192618
          ],
          [
            8,
            472.251958192618
          ],
          [
            3,
            30.25673122295978
          ],
          [
            2,
            25.78299757657033
          ],
          [
            1,
            163.148742379245
          ],
          [
            4,
            150.8990115896871
          ],
          [
            7,
            513.736968518907
          ],
          [
            5,
            433.7792827947944
          ],
          [
            8,
            472.251958192618
          ]
        ],
        "timestampBeginCalculate" : 1469179006.853948,
        "resultPoint" : [
          875,
          875
        ],
        "timestampEndCalculate" : 1469179006.946304,
        "pointId" : 7,
        "calcTime" : 0.09235596656799316
      },
      {
        "beaconData" : [
          [
            3,
            35.41736544564151
          ],
          [
            2,
            25.78299757657033
          ],
          [
            1,
            179.2708380433156
          ],
          [
            4,
            150.8990115896871
          ],
          [
            7,
            513.736968518907
          ],
          [
            5,
            433.7792827947944
          ],
          [
            8,
            472.251958192618
          ],
          [
            3,
            35.41736544564151
          ],
          [
            2,
            25.78299757657033
          ],
          [
            1,
            179.2708380433156
          ],
          [
            4,
            150.8990115896871
          ],
          [
            7,
            513.736968518907
          ],
          [
            5,
            433.7792827947944
          ],
          [
            8,
            472.251958192618
          ],
          [
            3,
            35.41736544564151
          ],
          [
            2,
            25.78299757657033
          ],
          [
            1,
            179.2708380433156
          ],
          [
            4,
            150.8990115896871
          ],
          [
            7,
            513.736968518907
          ],
          [
            5,
            433.7792827947944
          ],
          [
            8,
            472.251958192618
          ],
          [
            3,
            35.41736544564151
          ],
          [
            2,
            25.78299757657033
          ],
          [
            1,
            179.2708380433156
          ],
          [
            4,
            150.8990115896871
          ],
          [
            7,
            513.736968518907
          ],
          [
            5,
            433.7792827947944
          ],
          [
            8,
            472.251958192618
          ],
          [
            3,
            30.25673122295978
          ],
          [
            1,
            179.2708380433156
          ],
          [
            4,
            245.6845822681094
          ],
          [
            7,
            513.736968518907
          ],
          [
            5,
            433.7792827947944
          ],
          [
            8,
            472.251958192618
          ],
          [
            3,
            30.25673122295978
          ],
          [
            1,
            284.2481966679408
          ],
          [
            4,
            270.220968993194
          ],
          [
            8,
            365.1279992787795
          ],
          [
            7,
            558.4327245319774
          ],
          [
            5,
            433.7792827947944
          ],
          [
            3,
            30.25673122295978
          ],
          [
            1,
            284.2481966679408
          ],
          [
            4,
            270.220968993194
          ],
          [
            8,
            365.1279992787795
          ],
          [
            7,
            558.4327245319774
          ],
          [
            5,
            433.7792827947944
          ],
          [
            3,
            30.25673122295978
          ],
          [
            1,
            284.2481966679408
          ],
          [
            4,
            223.1955757278178
          ],
          [
            8,
            365.1279992787795
          ],
          [
            7,
            558.4327245319774
          ],
          [
            5,
            433.7792827947944
          ],
          [
            3,
            30.25673122295978
          ],
          [
            1,
            259.5938791382359
          ],
          [
            4,
            223.1955757278178
          ],
          [
            8,
            256.3277965326202
          ],
          [
            5,
            433.7792827947944
          ],
          [
            3,
            30.25673122295978
          ],
          [
            1,
            340.0134238469831
          ],
          [
            4,
            326.0716563905942
          ],
          [
            8,
            256.3277965326202
          ],
          [
            5,
            433.7792827947944
          ],
          [
            3,
            35.41736544564151
          ],
          [
            1,
            259.5938791382359
          ],
          [
            4,
            270.220968993194
          ],
          [
            8,
            365.1279992787795
          ],
          [
            7,
            513.736968518907
          ],
          [
            3,
            41.35710011760051
          ],
          [
            2,
            30.25673122295978
          ],
          [
            1,
            259.5938791382359
          ],
          [
            4,
            245.6845822681094
          ],
          [
            8,
            365.1279992787795
          ],
          [
            7,
            513.736968518907
          ],
          [
            3,
            35.41736544564151
          ],
          [
            2,
            30.25673122295978
          ],
          [
            1,
            259.5938791382359
          ],
          [
            4,
            245.6845822681094
          ],
          [
            8,
            306.3928672564156
          ],
          [
            7,
            472.251958192618
          ]
        ],
        "timestampBeginCalculate" : 1469179009.973321,
        "resultPoint" : [
          925,
          825
        ],
        "timestampEndCalculate" : 1469179010.062042,
        "pointId" : 8,
        "calcTime" : 0.08872103691101074
      },
      {
        "beaconData" : [
          [
            3,
            35.41736544564151
          ],
          [
            2,
            30.25673122295978
          ],
          [
            1,
            259.5938791382359
          ],
          [
            4,
            245.6845822681094
          ],
          [
            8,
            306.3928672564156
          ],
          [
            7,
            472.251958192618
          ],
          [
            2,
            18.5750083065955
          ],
          [
            3,
            75.14626854558617
          ],
          [
            1,
            284.2481966679408
          ],
          [
            4,
            270.220968993194
          ],
          [
            2,
            18.5750083065955
          ],
          [
            3,
            75.14626854558617
          ],
          [
            1,
            284.2481966679408
          ],
          [
            4,
            270.220968993194
          ],
          [
            7,
            513.736968518907
          ],
          [
            3,
            75.14626854558617
          ],
          [
            2,
            18.5750083065955
          ],
          [
            1,
            216.0304543783359
          ],
          [
            4,
            270.220968993194
          ],
          [
            7,
            513.736968518907
          ],
          [
            3,
            75.14626854558617
          ],
          [
            2,
            18.5750083065955
          ],
          [
            1,
            216.0304543783359
          ],
          [
            4,
            270.220968993194
          ],
          [
            7,
            513.736968518907
          ],
          [
            2,
            18.5750083065955
          ],
          [
            3,
            75.14626854558617
          ],
          [
            1,
            216.0304543783359
          ],
          [
            4,
            270.220968993194
          ],
          [
            7,
            513.736968518907
          ],
          [
            2,
            18.5750083065955
          ],
          [
            3,
            48.17878774152696
          ],
          [
            1,
            216.0304543783359
          ],
          [
            4,
            270.220968993194
          ],
          [
            7,
            513.736968518907
          ],
          [
            2,
            18.5750083065955
          ],
          [
            3,
            48.17878774152696
          ],
          [
            1,
            216.0304543783359
          ],
          [
            4,
            270.220968993194
          ],
          [
            7,
            513.736968518907
          ],
          [
            2,
            18.5750083065955
          ],
          [
            3,
            55.9969715318615
          ],
          [
            1,
            216.0304543783359
          ],
          [
            4,
            270.220968993194
          ],
          [
            7,
            513.736968518907
          ],
          [
            2,
            18.5750083065955
          ],
          [
            3,
            55.9969715318615
          ],
          [
            1,
            216.0304543783359
          ],
          [
            4,
            270.220968993194
          ],
          [
            7,
            513.736968518907
          ],
          [
            2,
            18.5750083065955
          ],
          [
            3,
            48.17878774152696
          ],
          [
            1,
            111.3202135765038
          ],
          [
            4,
            270.220968993194
          ],
          [
            7,
            513.736968518907
          ],
          [
            2,
            18.5750083065955
          ],
          [
            3,
            75.14626854558617
          ],
          [
            1,
            111.3202135765038
          ],
          [
            4,
            136.609170434882
          ],
          [
            7,
            513.736968518907
          ]
        ],
        "timestampBeginCalculate" : 1469179013.081654,
        "resultPoint" : [
          925,
          775
        ],
        "timestampEndCalculate" : 1469179014.270591,
        "pointId" : 9,
        "calcTime" : 1.188936948776245
      },
      {
        "beaconData" : [
          [
            3,
            101.076
          ],
          [
            4,
            54.53943226371458
          ],
          [
            2,
            163.148742379245
          ],
          [
            3,
            101.076
          ],
          [
            4,
            54.53943226371458
          ],
          [
            1,
            236.8993551961507
          ],
          [
            7,
            306.3928672564156
          ],
          [
            2,
            163.148742379245
          ],
          [
            3,
            101.076
          ],
          [
            4,
            63.68606846123029
          ],
          [
            1,
            236.8993551961507
          ],
          [
            6,
            612.4438831334355
          ],
          [
            7,
            306.3928672564156
          ],
          [
            2,
            163.148742379245
          ],
          [
            3,
            371.4343383017693
          ],
          [
            4,
            63.68606846123029
          ],
          [
            1,
            259.5938791382359
          ],
          [
            6,
            469.9073594284206
          ],
          [
            7,
            306.3928672564156
          ],
          [
            2,
            216.0304543783359
          ],
          [
            4,
            54.53943226371458
          ],
          [
            3,
            371.4343383017693
          ],
          [
            1,
            259.5938791382359
          ],
          [
            6,
            561.1662885019098
          ],
          [
            7,
            306.3928672564156
          ],
          [
            2,
            216.0304543783359
          ],
          [
            4,
            54.53943226371458
          ],
          [
            3,
            371.4343383017693
          ],
          [
            1,
            284.2481966679408
          ],
          [
            6,
            561.1662885019098
          ],
          [
            7,
            306.3928672564156
          ],
          [
            8,
            433.7792827947944
          ],
          [
            4,
            54.53943226371458
          ],
          [
            2,
            216.0304543783359
          ],
          [
            3,
            371.4343383017693
          ],
          [
            1,
            284.2481966679408
          ],
          [
            6,
            561.1662885019098
          ],
          [
            7,
            306.3928672564156
          ],
          [
            8,
            433.7792827947944
          ],
          [
            4,
            54.53943226371458
          ],
          [
            2,
            216.0304543783359
          ],
          [
            3,
            371.4343383017693
          ],
          [
            1,
            371.4343383017693
          ],
          [
            6,
            561.1662885019098
          ],
          [
            7,
            306.3928672564156
          ],
          [
            8,
            433.7792827947944
          ],
          [
            4,
            63.68606846123029
          ],
          [
            2,
            340.0134238469831
          ],
          [
            3,
            371.4343383017693
          ],
          [
            1,
            405.4358417776032
          ],
          [
            6,
            561.1662885019098
          ],
          [
            7,
            306.3928672564156
          ],
          [
            8,
            433.7792827947944
          ],
          [
            4,
            54.53943226371458
          ],
          [
            2,
            340.0134238469831
          ],
          [
            3,
            371.4343383017693
          ],
          [
            1,
            405.4358417776032
          ],
          [
            6,
            429.4422932744724
          ],
          [
            7,
            306.3928672564156
          ],
          [
            8,
            433.7792827947944
          ],
          [
            4,
            54.53943226371458
          ],
          [
            2,
            340.0134238469831
          ],
          [
            3,
            481.9034141999836
          ],
          [
            1,
            405.4358417776032
          ],
          [
            6,
            429.4422932744724
          ],
          [
            7,
            334.6020288426232
          ],
          [
            8,
            433.7792827947944
          ],
          [
            4,
            54.53943226371458
          ],
          [
            2,
            340.0134238469831
          ],
          [
            3,
            481.9034141999836
          ],
          [
            1,
            405.4358417776032
          ],
          [
            6,
            429.4422932744724
          ],
          [
            7,
            334.6020288426232
          ],
          [
            8,
            433.7792827947944
          ],
          [
            4,
            54.53943226371458
          ],
          [
            2,
            340.0134238469831
          ],
          [
            3,
            481.9034141999836
          ],
          [
            1,
            371.4343383017693
          ],
          [
            5,
            234.1935703631722
          ],
          [
            6,
            270.220968993194
          ],
          [
            7,
            334.6020288426232
          ],
          [
            8,
            365.1279992787795
          ],
          [
            9,
            378.0226306655812
          ],
          [
            4,
            63.68606846123029
          ],
          [
            2,
            340.0134238469831
          ],
          [
            5,
            234.1935703631722
          ],
          [
            6,
            183.7796512587244
          ],
          [
            7,
            334.6020288426232
          ],
          [
            10,
            481.9034141999836
          ],
          [
            8,
            472.251958192618
          ],
          [
            9,
            347.7387676083854
          ],
          [
            4,
            63.68606846123029
          ],
          [
            2,
            340.0134238469831
          ],
          [
            5,
            234.1935703631722
          ],
          [
            6,
            183.7796512587244
          ],
          [
            7,
            334.6020288426232
          ],
          [
            10,
            481.9034141999836
          ],
          [
            8,
            398.1307566094795
          ],
          [
            9,
            347.7387676083854
          ],
          [
            4,
            63.68606846123029
          ],
          [
            2,
            340.0134238469831
          ],
          [
            6,
            183.7796512587244
          ],
          [
            5,
            234.1935703631722
          ],
          [
            7,
            334.6020288426232
          ],
          [
            10,
            481.9034141999836
          ],
          [
            8,
            398.1307566094795
          ],
          [
            9,
            347.7387676083854
          ]
        ],
        "timestampBeginCalculate" : 1469179017.296674,
        "resultPoint" : [
          675,
          725
        ],
        "timestampEndCalculate" : 1469179017.335125,
        "pointId" : 10,
        "calcTime" : 0.03845095634460449
      },
      {
        "beaconData" : [
          [
            4,
            111.7946240237244
          ],
          [
            5,
            398.1307566094795
          ],
          [
            7,
            606.5482946890265
          ],
          [
            10,
            481.9034141999836
          ],
          [
            8,
            472.251958192618
          ],
          [
            9,
            445.7744636719126
          ],
          [
            4,
            111.7946240237244
          ],
          [
            2,
            259.5938791382359
          ],
          [
            5,
            398.1307566094795
          ],
          [
            7,
            606.5482946890265
          ],
          [
            10,
            481.9034141999836
          ],
          [
            8,
            472.251958192618
          ],
          [
            9,
            445.7744636719126
          ],
          [
            4,
            86.23010202502093
          ],
          [
            2,
            259.5938791382359
          ],
          [
            3,
            442.1961266124067
          ],
          [
            1,
            620.7492681382209
          ],
          [
            6,
            667.8323058832368
          ],
          [
            5,
            195.0830699329905
          ],
          [
            7,
            606.5482946890265
          ],
          [
            8,
            472.251958192618
          ],
          [
            4,
            86.23010202502093
          ],
          [
            2,
            259.5938791382359
          ],
          [
            3,
            442.1961266124067
          ],
          [
            1,
            620.7492681382209
          ],
          [
            5,
            195.0830699329905
          ],
          [
            6,
            667.8323058832368
          ],
          [
            7,
            606.5482946890265
          ],
          [
            8,
            472.251958192618
          ],
          [
            4,
            150.8990115896871
          ],
          [
            2,
            259.5938791382359
          ],
          [
            3,
            442.1961266124067
          ],
          [
            1,
            620.7492681382209
          ],
          [
            5,
            195.0830699329905
          ],
          [
            6,
            667.8323058832368
          ],
          [
            7,
            513.736968518907
          ],
          [
            8,
            472.251958192618
          ],
          [
            4,
            150.8990115896871
          ],
          [
            2,
            259.5938791382359
          ],
          [
            3,
            442.1961266124067
          ],
          [
            5,
            195.0830699329905
          ],
          [
            1,
            620.7492681382209
          ],
          [
            6,
            667.8323058832368
          ],
          [
            7,
            513.736968518907
          ],
          [
            8,
            472.251958192618
          ],
          [
            4,
            150.8990115896871
          ],
          [
            2,
            259.5938791382359
          ],
          [
            3,
            442.1961266124067
          ],
          [
            5,
            195.0830699329905
          ],
          [
            1,
            620.7492681382209
          ],
          [
            6,
            667.8323058832368
          ],
          [
            7,
            513.736968518907
          ],
          [
            8,
            472.251958192618
          ],
          [
            4,
            150.8990115896871
          ],
          [
            2,
            259.5938791382359
          ],
          [
            3,
            442.1961266124067
          ],
          [
            5,
            195.0830699329905
          ],
          [
            1,
            481.9034141999836
          ],
          [
            6,
            667.8323058832368
          ],
          [
            7,
            606.5482946890265
          ],
          [
            8,
            472.251958192618
          ],
          [
            4,
            150.8990115896871
          ],
          [
            2,
            259.5938791382359
          ],
          [
            3,
            442.1961266124067
          ],
          [
            5,
            195.0830699329905
          ],
          [
            1,
            481.9034141999836
          ],
          [
            6,
            667.8323058832368
          ],
          [
            7,
            606.5482946890265
          ],
          [
            8,
            433.7792827947944
          ],
          [
            4,
            150.8990115896871
          ],
          [
            2,
            259.5938791382359
          ],
          [
            3,
            442.1961266124067
          ],
          [
            5,
            195.0830699329905
          ],
          [
            1,
            481.9034141999836
          ],
          [
            6,
            667.8323058832368
          ],
          [
            7,
            606.5482946890265
          ],
          [
            8,
            433.7792827947944
          ],
          [
            4,
            63.68606846123029
          ],
          [
            2,
            259.5938791382359
          ],
          [
            3,
            442.1961266124067
          ],
          [
            5,
            213.8188134818738
          ],
          [
            1,
            481.9034141999836
          ],
          [
            6,
            667.8323058832368
          ],
          [
            8,
            365.1279992787795
          ],
          [
            4,
            183.7796512587244
          ],
          [
            2,
            284.2481966679408
          ],
          [
            3,
            481.9034141999836
          ],
          [
            5,
            256.3277965326202
          ],
          [
            1,
            442.1961266124067
          ],
          [
            6,
            667.8323058832368
          ],
          [
            8,
            365.1279992787795
          ],
          [
            4,
            111.7946240237244
          ],
          [
            2,
            284.2481966679408
          ],
          [
            3,
            524.7563943861383
          ],
          [
            5,
            234.1935703631722
          ],
          [
            1,
            442.1961266124067
          ],
          [
            6,
            667.8323058832368
          ],
          [
            8,
            398.1307566094795
          ],
          [
            4,
            111.7946240237244
          ],
          [
            2,
            284.2481966679408
          ],
          [
            5,
            234.1935703631722
          ],
          [
            3,
            524.7563943861383
          ],
          [
            1,
            442.1961266124067
          ],
          [
            6,
            667.8323058832368
          ],
          [
            8,
            433.7792827947944
          ],
          [
            4,
            111.7946240237244
          ],
          [
            2,
            284.2481966679408
          ],
          [
            5,
            234.1935703631722
          ],
          [
            3,
            524.7563943861383
          ],
          [
            1,
            442.1961266124067
          ],
          [
            8,
            433.7792827947944
          ]
        ],
        "timestampBeginCalculate" : 1469179020.361377,
        "resultPoint" : [
          675,
          725
        ],
        "timestampEndCalculate" : 1469179020.364451,
        "pointId" : 11,
        "calcTime" : 0.003073930740356445
      },
      {
        "beaconData" : [
          [
            4,
            111.7946240237244
          ],
          [
            5,
            234.1935703631722
          ],
          [
            3,
            442.1961266124067
          ],
          [
            1,
            405.4358417776032
          ],
          [
            8,
            433.7792827947944
          ],
          [
            4,
            111.7946240237244
          ],
          [
            5,
            234.1935703631722
          ],
          [
            3,
            442.1961266124067
          ],
          [
            1,
            405.4358417776032
          ],
          [
            8,
            433.7792827947944
          ],
          [
            4,
            111.7946240237244
          ],
          [
            5,
            234.1935703631722
          ],
          [
            3,
            442.1961266124067
          ],
          [
            1,
            442.1961266124067
          ],
          [
            8,
            433.7792827947944
          ],
          [
            4,
            111.7946240237244
          ],
          [
            5,
            234.1935703631722
          ],
          [
            3,
            442.1961266124067
          ],
          [
            1,
            442.1961266124067
          ],
          [
            8,
            433.7792827947944
          ],
          [
            4,
            101.076
          ],
          [
            5,
            234.1935703631722
          ],
          [
            3,
            442.1961266124067
          ],
          [
            1,
            442.1961266124067
          ],
          [
            8,
            433.7792827947944
          ],
          [
            4,
            101.076
          ],
          [
            5,
            234.1935703631722
          ],
          [
            3,
            442.1961266124067
          ],
          [
            1,
            442.1961266124067
          ],
          [
            8,
            433.7792827947944
          ],
          [
            4,
            86.23010202502093
          ],
          [
            5,
            234.1935703631722
          ],
          [
            3,
            442.1961266124067
          ],
          [
            1,
            442.1961266124067
          ],
          [
            8,
            433.7792827947944
          ],
          [
            4,
            86.23010202502093
          ],
          [
            5,
            234.1935703631722
          ],
          [
            3,
            442.1961266124067
          ],
          [
            1,
            442.1961266124067
          ],
          [
            8,
            433.7792827947944
          ],
          [
            4,
            86.23010202502093
          ],
          [
            5,
            234.1935703631722
          ],
          [
            3,
            442.1961266124067
          ],
          [
            1,
            442.1961266124067
          ],
          [
            8,
            433.7792827947944
          ],
          [
            4,
            86.23010202502093
          ],
          [
            5,
            306.3928672564156
          ],
          [
            3,
            442.1961266124067
          ],
          [
            1,
            570.9646787633517
          ],
          [
            8,
            433.7792827947944
          ],
          [
            7,
            558.4327245319774
          ],
          [
            4,
            86.23010202502093
          ],
          [
            5,
            306.3928672564156
          ],
          [
            3,
            371.4343383017693
          ],
          [
            1,
            570.9646787633517
          ],
          [
            8,
            334.6020288426232
          ],
          [
            7,
            558.4327245319774
          ],
          [
            4,
            86.23010202502093
          ],
          [
            5,
            306.3928672564156
          ],
          [
            3,
            371.4343383017693
          ],
          [
            8,
            306.3928672564156
          ],
          [
            7,
            558.4327245319774
          ],
          [
            4,
            86.23010202502093
          ],
          [
            3,
            371.4343383017693
          ],
          [
            1,
            524.7563943861383
          ],
          [
            8,
            306.3928672564156
          ],
          [
            7,
            513.736968518907
          ],
          [
            10,
            570.9646787633517
          ],
          [
            4,
            86.23010202502093
          ],
          [
            3,
            371.4343383017693
          ],
          [
            1,
            524.7563943861383
          ],
          [
            8,
            306.3928672564156
          ],
          [
            7,
            513.736968518907
          ],
          [
            10,
            570.9646787633517
          ],
          [
            5,
            365.1279992787795
          ],
          [
            3,
            371.4343383017693
          ],
          [
            1,
            481.9034141999836
          ],
          [
            8,
            306.3928672564156
          ],
          [
            10,
            524.7563943861383
          ],
          [
            5,
            234.1935703631722
          ],
          [
            3,
            371.4343383017693
          ],
          [
            1,
            481.9034141999836
          ],
          [
            8,
            306.3928672564156
          ],
          [
            7,
            513.736968518907
          ],
          [
            10,
            524.7563943861383
          ]
        ],
        "timestampBeginCalculate" : 1469179023.411037,
        "resultPoint" : [
          675,
          775
        ],
        "timestampEndCalculate" : 1469179023.522084,
        "pointId" : 12,
        "calcTime" : 0.1110470294952393
      },
      {
        "beaconData" : [
          [
            5,
            234.1935703631722
          ],
          [
            1,
            481.9034141999836
          ],
          [
            8,
            306.3928672564156
          ],
          [
            7,
            513.736968518907
          ],
          [
            10,
            524.7563943861383
          ],
          [
            5,
            195.0830699329905
          ],
          [
            1,
            524.7563943861383
          ],
          [
            6,
            612.4438831334355
          ],
          [
            8,
            365.1279992787795
          ],
          [
            4,
            101.076
          ],
          [
            2,
            481.9034141999836
          ],
          [
            5,
            234.1935703631722
          ],
          [
            7,
            256.3277965326202
          ],
          [
            6,
            727.608712856503
          ],
          [
            8,
            280.3491581424072
          ],
          [
            4,
            101.076
          ],
          [
            2,
            481.9034141999836
          ],
          [
            5,
            234.1935703631722
          ],
          [
            6,
            727.608712856503
          ],
          [
            8,
            280.3491581424072
          ],
          [
            7,
            256.3277965326202
          ]
        ],
        "timestampBeginCalculate" : 1469179026.548536,
        "resultPoint" : [
          625,
          675
        ],
        "timestampEndCalculate" : 1469179026.625849,
        "pointId" : 13,
        "calcTime" : 0.07731294631958008
      },
      {
        "beaconData" : [
          [
            4,
            74.19082976710378
          ],
          [
            2,
            481.9034141999836
          ],
          [
            5,
            558.4327245319774
          ],
          [
            8,
            213.8188134818738
          ],
          [
            7,
            280.3491581424072
          ],
          [
            9,
            378.0226306655812
          ],
          [
            4,
            74.19082976710378
          ],
          [
            5,
            558.4327245319774
          ],
          [
            2,
            481.9034141999836
          ],
          [
            8,
            213.8188134818738
          ],
          [
            7,
            280.3491581424072
          ],
          [
            9,
            378.0226306655812
          ],
          [
            4,
            63.68606846123029
          ],
          [
            1,
            442.1961266124067
          ],
          [
            3,
            620.7492681382209
          ],
          [
            8,
            162.0809127700045
          ],
          [
            7,
            334.6020288426232
          ],
          [
            9,
            410.6503230222091
          ],
          [
            4,
            150.8990115896871
          ],
          [
            1,
            442.1961266124067
          ],
          [
            8,
            147.6067700027567
          ],
          [
            3,
            524.7563943861383
          ],
          [
            7,
            306.3928672564156
          ]
        ],
        "timestampBeginCalculate" : 1469179029.663633,
        "resultPoint" : [
          675,
          575
        ],
        "timestampEndCalculate" : 1469179029.772558,
        "pointId" : 14,
        "calcTime" : 0.1089251041412354
      },
      {
        "beaconData" : [
          [
            4,
            183.7796512587244
          ],
          [
            8,
            177.8727692850979
          ],
          [
            1,
            405.4358417776032
          ],
          [
            7,
            75.44933838994433
          ],
          [
            3,
            481.9034141999836
          ],
          [
            4,
            245.6845822681094
          ],
          [
            5,
            606.5482946890265
          ],
          [
            7,
            75.44933838994433
          ],
          [
            8,
            256.3277965326202
          ],
          [
            1,
            405.4358417776032
          ],
          [
            3,
            405.4358417776032
          ],
          [
            4,
            245.6845822681094
          ],
          [
            7,
            75.44933838994433
          ],
          [
            5,
            606.5482946890265
          ],
          [
            8,
            256.3277965326202
          ],
          [
            1,
            405.4358417776032
          ],
          [
            3,
            405.4358417776032
          ],
          [
            4,
            245.6845822681094
          ],
          [
            7,
            41.89038878845928
          ],
          [
            5,
            606.5482946890265
          ],
          [
            8,
            256.3277965326202
          ],
          [
            1,
            405.4358417776032
          ],
          [
            3,
            405.4358417776032
          ],
          [
            7,
            41.89038878845928
          ],
          [
            4,
            296.9612443970432
          ],
          [
            5,
            606.5482946890265
          ],
          [
            8,
            280.3491581424072
          ],
          [
            1,
            284.2481966679408
          ],
          [
            3,
            311.0045093616734
          ],
          [
            7,
            41.89038878845928
          ],
          [
            4,
            296.9612443970432
          ],
          [
            8,
            280.3491581424072
          ],
          [
            5,
            472.251958192618
          ],
          [
            1,
            284.2481966679408
          ],
          [
            3,
            284.2481966679408
          ],
          [
            7,
            41.89038878845928
          ],
          [
            4,
            469.9073594284206
          ],
          [
            2,
            196.860675696825
          ],
          [
            8,
            365.1279992787795
          ],
          [
            1,
            259.5938791382359
          ],
          [
            3,
            284.2481966679408
          ],
          [
            7,
            41.89038878845928
          ],
          [
            4,
            469.9073594284206
          ],
          [
            2,
            196.860675696825
          ],
          [
            1,
            259.5938791382359
          ],
          [
            8,
            365.1279992787795
          ],
          [
            3,
            284.2481966679408
          ],
          [
            7,
            41.89038878845928
          ],
          [
            4,
            469.9073594284206
          ],
          [
            2,
            196.860675696825
          ],
          [
            1,
            259.5938791382359
          ],
          [
            8,
            365.1279992787795
          ],
          [
            3,
            284.2481966679408
          ],
          [
            7,
            41.89038878845928
          ],
          [
            4,
            469.9073594284206
          ],
          [
            2,
            196.860675696825
          ],
          [
            1,
            405.4358417776032
          ],
          [
            8,
            365.1279992787795
          ],
          [
            3,
            284.2481966679408
          ]
        ],
        "timestampBeginCalculate" : 1469179032.831608,
        "resultPoint" : [
          675,
          575
        ],
        "timestampEndCalculate" : 1469179032.933683,
        "pointId" : 15,
        "calcTime" : 0.1020748615264893
      },
      {
        "beaconData" : [
          [
            7,
            41.89038878845928
          ],
          [
            8,
            234.1935703631722
          ],
          [
            3,
            371.4343383017693
          ],
          [
            7,
            41.89038878845928
          ],
          [
            8,
            213.8188134818738
          ],
          [
            3,
            371.4343383017693
          ],
          [
            7,
            41.89038878845928
          ],
          [
            8,
            213.8188134818738
          ],
          [
            3,
            371.4343383017693
          ],
          [
            1,
            442.1961266124067
          ],
          [
            7,
            41.89038878845928
          ],
          [
            8,
            195.0830699329905
          ],
          [
            3,
            259.5938791382359
          ],
          [
            1,
            442.1961266124067
          ],
          [
            7,
            41.89038878845928
          ],
          [
            8,
            177.8727692850979
          ],
          [
            3,
            259.5938791382359
          ],
          [
            1,
            442.1961266124067
          ]
        ],
        "timestampBeginCalculate" : 1469179035.982544,
        "resultPoint" : [
          675,
          575
        ],
        "timestampEndCalculate" : 1469179036.367742,
        "pointId" : 16,
        "calcTime" : 0.3851981163024902
      },
      {
        "beaconData" : [
          [
            7,
            65.33801602200307
          ],
          [
            2,
            101.076
          ],
          [
            8,
            177.8727692850979
          ],
          [
            3,
            259.5938791382359
          ],
          [
            7,
            65.33801602200307
          ],
          [
            4,
            667.8323058832368
          ],
          [
            2,
            101.076
          ],
          [
            8,
            177.8727692850979
          ],
          [
            3,
            236.8993551961507
          ],
          [
            7,
            56.46302773531383
          ],
          [
            2,
            134.8919448261837
          ],
          [
            4,
            792.065495102915
          ],
          [
            8,
            195.0830699329905
          ],
          [
            3,
            196.860675696825
          ],
          [
            1,
            405.4358417776032
          ],
          [
            7,
            56.46302773531383
          ],
          [
            2,
            134.8919448261837
          ],
          [
            8,
            195.0830699329905
          ],
          [
            3,
            196.860675696825
          ],
          [
            1,
            405.4358417776032
          ],
          [
            7,
            56.46302773531383
          ],
          [
            2,
            134.8919448261837
          ],
          [
            4,
            727.608712856503
          ],
          [
            8,
            195.0830699329905
          ],
          [
            3,
            284.2481966679408
          ],
          [
            7,
            56.46302773531383
          ],
          [
            2,
            134.8919448261837
          ],
          [
            8,
            195.0830699329905
          ],
          [
            4,
            792.065495102915
          ],
          [
            3,
            284.2481966679408
          ]
        ],
        "timestampBeginCalculate" : 1469179039.381672,
        "resultPoint" : [
          675,
          575
        ],
        "timestampEndCalculate" : 1469179039.638921,
        "pointId" : 17,
        "calcTime" : 0.257249116897583
      },
      {
        "beaconData" : [
          [
            7,
            75.44933838994433
          ],
          [
            8,
            334.6020288426232
          ],
          [
            3,
            405.4358417776032
          ],
          [
            4,
            861.5109306955294
          ],
          [
            7,
            195.0830699329905
          ],
          [
            2,
            111.3202135765038
          ],
          [
            8,
            365.1279992787795
          ],
          [
            3,
            481.9034141999836
          ],
          [
            7,
            195.0830699329905
          ],
          [
            2,
            111.3202135765038
          ],
          [
            8,
            365.1279992787795
          ],
          [
            3,
            442.1961266124067
          ]
        ],
        "timestampBeginCalculate" : 1469179042.663408,
        "resultPoint" : [
          1025,
          575
        ],
        "timestampEndCalculate" : 1469179042.848507,
        "pointId" : 18,
        "calcTime" : 0.1850988864898682
      },
      {
        "beaconData" : [
          [
            7,
            86.94778501525586
          ],
          [
            7,
            86.94778501525586
          ],
          [
            3,
            570.9646787633517
          ],
          [
            4,
            792.065495102915
          ],
          [
            7,
            111.1712652909375
          ],
          [
            3,
            524.7563943861383
          ],
          [
            4,
            792.065495102915
          ],
          [
            7,
            41.89038878845928
          ],
          [
            8,
            162.0809127700045
          ],
          [
            3,
            524.7563943861383
          ],
          [
            4,
            727.608712856503
          ],
          [
            7,
            35.95908249879541
          ],
          [
            8,
            162.0809127700045
          ],
          [
            3,
            405.4358417776032
          ],
          [
            4,
            727.608712856503
          ],
          [
            7,
            35.95908249879541
          ],
          [
            8,
            162.0809127700045
          ],
          [
            3,
            405.4358417776032
          ],
          [
            4,
            727.608712856503
          ],
          [
            7,
            30.79461476574386
          ],
          [
            8,
            162.0809127700045
          ],
          [
            3,
            405.4358417776032
          ],
          [
            4,
            727.608712856503
          ],
          [
            7,
            35.95908249879541
          ],
          [
            8,
            162.0809127700045
          ],
          [
            3,
            405.4358417776032
          ],
          [
            7,
            35.95908249879541
          ],
          [
            8,
            162.0809127700045
          ],
          [
            3,
            405.4358417776032
          ]
        ],
        "timestampBeginCalculate" : 1469179048.8817,
        "resultPoint" : [
          1125,
          325
        ],
        "timestampEndCalculate" : 1469179049.063266,
        "pointId" : 19,
        "calcTime" : 0.1815659999847412
      },
      {
        "beaconData" : [
          [
            7,
            101.076
          ],
          [
            2,
            570.9646787633517
          ],
          [
            8,
            213.8188134818738
          ],
          [
            6,
            727.608712856503
          ],
          [
            7,
            65.33801602200307
          ],
          [
            8,
            213.8188134818738
          ],
          [
            2,
            570.9646787633517
          ],
          [
            6,
            727.608712856503
          ]
        ],
        "timestampBeginCalculate" : 1469179052.088518,
        "resultPoint" : [
          1125,
          325
        ],
        "timestampEndCalculate" : 1469179052.092213,
        "pointId" : 20,
        "calcTime" : 0.003694772720336914
      }
    ],
    "path" : [
      {
        "move" : false,
        "endActions" : 1469178998.530018,
        "stopPoint" : [
          982,
          1343
        ],
        "startAction" : 1469178982.352573,
        "durationAction" : 16.17744493484497
      },
      {
        "move" : true,
        "endActions" : 1469179005.203318,
        "startAction" : 1469178998.530018,
        "durationAction" : 6.673300266265869
      },
      {
        "move" : false,
        "endActions" : 1469179010.101739,
        "stopPoint" : [
          1003,
          880
        ],
        "startAction" : 1469179005.203318,
        "durationAction" : 4.898420810699463
      },
      {
        "move" : true,
        "endActions" : 1469179018.480284,
        "startAction" : 1469179010.101739,
        "durationAction" : 8.378545045852661
      },
      {
        "move" : false,
        "endActions" : 1469179024.878277,
        "stopPoint" : [
          712,
          810
        ],
        "startAction" : 1469179018.480284,
        "durationAction" : 6.397993087768555
      },
      {
        "move" : true,
        "endActions" : 1469179040.671966,
        "startAction" : 1469179024.878277,
        "durationAction" : 15.79368901252747
      },
      {
        "move" : false,
        "endActions" : 1469179044.893504,
        "stopPoint" : [
          973,
          641
        ],
        "startAction" : 1469179040.671966,
        "durationAction" : 4.221538066864014
      },
      {
        "move" : true,
        "endActions" : 1469179053.806513,
        "startAction" : 1469179044.893504,
        "durationAction" : 8.91300892829895
      },
      {
        "move" : false,
        "endActions" : 1469179044.893504,
        "stopPoint" : [
          989,
          195
        ],
        "startAction" : 1469179053.806513,
        "durationAction" : -8.91300892829895
      }
    ]
  },
  "date" : 1469178985.238242
}