{
    "plan": "Example plan",
    "type": 0,
    "unit": "cm",
    "plan_width": 2670,
    "plan_length": 1200,
    "layers": [{
               "layer_id": 0,
               "type": 0,
               "index": 0,
               "format": 0,
               "unit": "cm",
               "objects": [{
                           "id": 1,
                           "type": 1,
                           "params": {},
                           "coordinates": [
                                           [0, 130],
                                           [0, 390],
                                           [90, 390],
                                           [90, 560],
                                           [190, 560],
                                           [190, 550],
                                           [100, 550],
                                           [100, 380],
                                           [10, 380],
                                           [10, 130]
                                           ]
                           }, {
                           "id": 2,
                           "type": 1,
                           "params": {},
                           "coordinates": [
                                           [280, 550],
                                           [280, 560],
                                           [300, 560],
                                           [300, 650],
                                           [530, 650],
                                           [530, 640],
                                           [310, 640],
                                           [310, 550]
                                           ]
                           }, {
                           "id": 3,
                           "type": 1,
                           "params": {},
                           "coordinates": [
                                           [300, 920],
                                           [300, 1130],
                                           [680, 1200],
                                           [1130, 1200],
                                           [1130, 480],
                                           [1200, 480],
                                           [1200, 470],
                                           [1120, 470],
                                           [1120, 1190],
                                           [680, 1190],
                                           [310, 1125],
                                           [310, 930],
                                           [530, 930],
                                           [530, 920]
                                           ]
                           }, {
                           "id": 4,
                           "type": 1,
                           "params": {},
                           "coordinates": [
                                           [1130, 560],
                                           [1130, 570],
                                           [1320, 570],
                                           [1320, 560]
                                           ]
                           }, {
                           "id": 5,
                           "type": 1,
                           "params": {},
                           "coordinates": [
                                           [1260, 470],
                                           [1260, 480],
                                           [1320, 480],
                                           [1320, 710],
                                           [2500, 710],
                                           [2500, 470],
                                           [2490, 470],
                                           [2490, 700],
                                           [1330, 700],
                                           [1330, 470]
                                           ]
                           }, {
                           "id": 6,
                           "type": 1,
                           "params": {},
                           "coordinates": [
                                           [2500, 210],
                                           [2500, 220],
                                           [2660, 220],
                                           [2660, 500],
                                           [2500, 500],
                                           [2500, 510],
                                           [2670, 510],
                                           [2670, 210]
                                           ]
                           }, {
                           "id": 7,
                           "type": 1,
                           "params": {},
                           "coordinates": [
                                           [1120, 0],
                                           [1120, 40],
                                           [1130, 40],
                                           [1130, 10],
                                           [2490, 10],
                                           [2490, 250],
                                           [2500, 250],
                                           [2500, 0]
                                           ]
                           }, {
                           "id": 8,
                           "type": 1,
                           "params": {},
                           "coordinates": [
                                           [1120, 300],
                                           [1120, 330],
                                           [1330, 330],
                                           [1330, 10],
                                           [1320, 10],
                                           [1320, 320],
                                           [1130, 320],
                                           [1130, 300]
                                           ]
                           }, {
                           "id": 9,
                           "type": 1,
                           "params": {},
                           "coordinates": [
                                           [1120, 190],
                                           [1120, 250],
                                           [1130, 250],
                                           [1130, 220],
                                           [1320, 220],
                                           [1320, 210],
                                           [1130, 210],
                                           [1130, 190]
                                           ]
                           }, {
                           "id": 10,
                           "type": 1,
                           "params": {},
                           "coordinates": [
                                           [1120, 80],
                                           [1120, 140],
                                           [1130, 140],
                                           [1130, 110],
                                           [1320, 110],
                                           [1320, 100],
                                           [1130, 100],
                                           [1130, 80]
                                           ]
                           }, {
                           "id": 11,
                           "type": 1,
                           "params": {},
                           "coordinates": [
                                           [300, 50],
                                           [300, 310],
                                           [320, 310],
                                           [320, 300],
                                           [310, 300],
                                           [310, 60],
                                           [1020, 60],
                                           [1020, 310],
                                           [1040, 310],
                                           [1040, 240],
                                           [1030, 240],
                                           [1030, 50]
                                           ]
                           }, {
                           "id": 12,
                           "type": 1,
                           "params": {},
                           "coordinates": [
                                           [370, 300],
                                           [370, 310],
                                           [970, 310],
                                           [970, 300]
                                           ]
                           }, {
                           "id": 13,
                           "type": 3,
                           "params": {
                           "1": true
                           },
                           "coordinates": [
                                           [190, 560],
                                           [280, 560]
                                           ]
                           }, {
                           "id": 14,
                           "type": 3,
                           "params": {},
                           "coordinates": [
                                           [320, 310],
                                           [370, 310]
                                           ]
                           }, {
                           "id": 15,
                           "type": 3,
                           "params": {},
                           "coordinates": [
                                           [970, 310],
                                           [1020, 310]
                                           ]
                           }, {
                           "id": 16,
                           "type": 3,
                           "params": {},
                           "coordinates": [
                                           [1120, 250],
                                           [1120, 300]
                                           ]
                           }, {
                           "id": 17,
                           "type": 3,
                           "params": {},
                           "coordinates": [
                                           [1120, 140],
                                           [1120, 190]
                                           ]
                           }, {
                           "id": 18,
                           "type": 3,
                           "params": {},
                           "coordinates": [
                                           [1120, 30],
                                           [1120, 80]
                                           ]
                           }, {
                           "id": 19,
                           "type": 3,
                           "params": {},
                           "coordinates": [
                                           [1200, 470],
                                           [1260, 470]
                                           ]
                           }, {
                           "id": 20,
                           "type": 4,
                           "params": {},
                           "coordinates": [
                                           [540, 950],
                                           [540, 900],
                                           [580, 900],
                                           [580, 950]
                                           ]
                           }, {
                           "id": 21,
                           "type": 4,
                           "params": {},
                           "coordinates": [
                                           [780, 950],
                                           [780, 900],
                                           [820, 900],
                                           [820, 950]
                                           ]
                           }, {
                           "id": 22,
                           "type": 4,
                           "params": {},
                           "coordinates": [
                                           [1010, 950],
                                           [1010, 900],
                                           [1050, 900],
                                           [1050, 950]
                                           ]
                           }, {
                           "id": 23,
                           "type": 4,
                           "params": {},
                           "coordinates": [
                                           [540, 520],
                                           [540, 570],
                                           [580, 570],
                                           [580, 520]
                                           ]
                           }, {
                           "id": 24,
                           "type": 4,
                           "params": {},
                           "coordinates": [
                                           [780, 520],
                                           [780, 570],
                                           [820, 570],
                                           [820, 520]
                                           ]
                           }, {
                           "id": 25,
                           "type": 4,
                           "params": {},
                           "coordinates": [
                                           [1010, 520],
                                           [1010, 570],
                                           [1050, 570],
                                           [1050, 520]
                                           ]
                           }, {
                           "id": 26,
                           "type": 4,
                           "params": {},
                           "coordinates": [
                                           [1530, 430],
                                           [1530, 480],
                                           [1570, 480],
                                           [1570, 430]
                                           ]
                           }, {
                           "id": 27,
                           "type": 4,
                           "params": {},
                           "coordinates": [
                                           [1530, 240],
                                           [1530, 290],
                                           [1570, 290],
                                           [1570, 240]
                                           ]
                           }, {
                           "id": 28,
                           "type": 4,
                           "params": {},
                           "coordinates": [
                                           [1770, 430],
                                           [1770, 480],
                                           [1810, 480],
                                           [1810, 430]
                                           ]
                           }, {
                           "id": 29,
                           "type": 4,
                           "params": {},
                           "coordinates": [
                                           [1770, 240],
                                           [1770, 290],
                                           [1810, 290],
                                           [1810, 240]
                                           ]
                           }, {
                           "id": 30,
                           "type": 4,
                           "params": {},
                           "coordinates": [
                                           [2010, 430],
                                           [2010, 480],
                                           [2050, 480],
                                           [2050, 430]
                                           ]
                           }, {
                           "id": 31,
                           "type": 4,
                           "params": {},
                           "coordinates": [
                                           [2010, 240],
                                           [2010, 290],
                                           [2050, 290],
                                           [2050, 240]
                                           ]
                           }, {
                           "id": 32,
                           "type": 4,
                           "params": {},
                           "coordinates": [
                                           [2250, 430],
                                           [2250, 480],
                                           [2290, 480],
                                           [2290, 430]
                                           ]
                           }, {
                           "id": 33,
                           "type": 4,
                           "params": {},
                           "coordinates": [
                                           [2250, 240],
                                           [2250, 290],
                                           [2290, 290],
                                           [2290, 240]
                                           ]
                           }, {
                           "id": 34,
                           "type": 4,
                           "params": {},
                           "coordinates": [
                                           [2460, 430],
                                           [2460, 480],
                                           [2510, 480],
                                           [2510, 430]
                                           ]
                           }, {
                           "id": 35,
                           "type": 4,
                           "params": {},
                           "coordinates": [
                                           [2460, 240],
                                           [2460, 290],
                                           [2510, 290],
                                           [2510, 240]
                                           ]
                           }, {
                           "id": 36,
                           "type": 5,
                           "params": {},
                           "coordinates": [
                                           [300, 650],
                                           [300, 920],
                                           [530, 920],
                                           [530, 650]
                                           ]
                           }]
               }, {
               "layer_id": 1,
               "type": 1,
               "index": 0,
               "format": 0,
               "unit": "cm",
               "objects": []
               }, {
               "layer_id": 2,
               "type": 2,
               "index": 0,
               "format": 1,
               "unit": "cm",
               "grid_step": 50,
               "grid_filling": []
               }]
}